score,URL,fragment,path,query,issuer name,registration date,expiration date,IP,geo,country,timestamp
1.0,https://paypalco.org/,,/,,"C=US, O=Let's Encrypt, CN=Let's Encrypt Authority X3",2020-04-19,2020-07-18,108.179.238.132,"{'lat': 40.233841, 'lon': -111.658531}",United States of America,2020-04-21
1.0,https://verification-account-paypal-com.everfit.com.ph/,,/,,"C=US, O=Let's Encrypt, CN=Let's Encrypt Authority X3",2020-04-16,2020-07-15,198.38.82.246,"{'lat': 37.412086, 'lon': -121.945175}",United States of America,2020-04-21
0.7,https://www.paypaltransactions.com/,,/,,"C=US, O=Let's Encrypt, CN=Let's Encrypt Authority X3",2020-04-17,2020-07-16,18.232.28.189,"{'lat': 39.04372, 'lon': -77.487488}",United States of America,2020-04-21
0.7,https://ndtgjerxlvpxwpt.paypalcareers.jobs/,,/,,"C=US, O=Let's Encrypt, CN=Let's Encrypt Authority X3",2020-04-17,2020-07-16,50.19.241.165,"{'lat': 39.04372, 'lon': -77.487488}",United States of America,2020-04-21
0.7,https://www.paypalace.co/,,/,,"C=US, O=Let's Encrypt, CN=Let's Encrypt Authority X3",2020-04-19,2020-07-18,88.214.207.96,"{'lat': 51.50853, 'lon': -0.12574}",United Kingdom of Great Britain and Northern Ireland,2020-04-21
0.7,https://vodafone.visitor.express/,,/,,"C=US, O=Let's Encrypt, CN=Let's Encrypt Authority X3",2020-04-18,2020-07-17,51.89.147.40,"{'lat': 51.50853, 'lon': -0.12574}",United Kingdom of Great Britain and Northern Ireland,2020-04-21
0.7,https://paypalbillingteam.com/,,/,,"C=US, O=Let's Encrypt, CN=Let's Encrypt Authority X3",2020-04-20,2020-07-19,107.189.3.179,"{'lat': 41.141571, 'lon': -104.791328}",United States of America,2020-04-21
0.7,https://paypal-validation-centre.com/,,/,,"C=US, O=Let's Encrypt, CN=Let's Encrypt Authority X3",2020-04-19,2020-07-18,162.241.114.190,"{'lat': 40.213909, 'lon': -111.634071}",United States of America,2020-04-21
0.5,https://paypalbr-m1941-amasty.imaginationmedia.com.br/,,/,,"C=US, O=Let's Encrypt, CN=Let's Encrypt Authority X3",2020-04-16,2020-07-15,3.213.127.202,"{'lat': 39.04372, 'lon': -77.487488}",United States of America,2020-04-21
0.5,https://paypalbr-m1941-aheadworks.imaginationmedia.com.br/,,/,,"C=US, O=Let's Encrypt, CN=Let's Encrypt Authority X3",2020-04-16,2020-07-15,3.213.127.202,"{'lat': 39.04372, 'lon': -77.487488}",United States of America,2020-04-21
0.5,https://paypalbr-m1941-inovarti.imaginationmedia.com.br/,,/,,"C=US, O=Let's Encrypt, CN=Let's Encrypt Authority X3",2020-04-16,2020-07-15,3.213.127.202,"{'lat': 39.04372, 'lon': -77.487488}",United States of America,2020-04-21
0.5,https://paypalbr-m1941-ipagare.imaginationmedia.com.br/,,/,,"C=US, O=Let's Encrypt, CN=Let's Encrypt Authority X3",2020-04-16,2020-07-15,3.213.127.202,"{'lat': 39.04372, 'lon': -77.487488}",United States of America,2020-04-21
0.5,https://paypalbr-m1941-firecheckout.imaginationmedia.com.br/,,/,,"C=US, O=Let's Encrypt, CN=Let's Encrypt Authority X3",2020-04-16,2020-07-15,3.213.127.202,"{'lat': 39.04372, 'lon': -77.487488}",United States of America,2020-04-21
0.45,https://www.qaypal.com/,,/,,"C=US, ST=CA, L=San Francisco, O=""CloudFlare, Inc."", CN=CloudFlare Inc ECC CA-2",2019-03-20,2020-03-20,104.24.118.98,"{'lat': 32.783058, 'lon': -96.806671}",United States of America,2020-04-21
0.2,https://webmail.pusakanusantara.co.id/,,/,,"C=US, O=Let's Encrypt, CN=Let's Encrypt Authority X3",2020-04-17,2020-07-16,203.161.184.40,"{'lat': -7.78278, 'lon': 110.360832}",Indonesia,2020-04-21
0.05,https://www.xn--ayal-ukbc.com/,,/,,"C=US, O=Let's Encrypt, CN=Let's Encrypt Authority X3",2020-03-30,2020-06-28,45.79.179.17,"{'lat': 40.735661, 'lon': -74.172371}",United States of America,2020-04-21
0.05,https://www.pawypal.com/,,/,,"C=US, O=Let's Encrypt, CN=Let's Encrypt Authority X3",2020-03-12,2020-06-10,23.227.38.64,"{'lat': 45.420658, 'lon': -75.69294}",Canada,2020-04-21
0.05,https://paypal.harpoongaming.com/,,/,,"C=US, O=Let's Encrypt, CN=Let's Encrypt Authority X3",2020-04-18,2020-07-17,54.39.183.73,"{'lat': 45.508839, 'lon': -73.587807}",Canada,2020-04-21
0.05,https://portal-test-paypal-prof-phmxky.pr-heroku.izettletest.com/,,/,,"C=US, O=Let's Encrypt, CN=Let's Encrypt Authority X3",2020-04-21,2020-07-20,34.247.231.125,"{'lat': 53.34399, 'lon': -6.26719}",Ireland,2020-04-21
0.05,https://mamalattebon.net/,,/,,"C=US, O=Let's Encrypt, CN=Let's Encrypt Authority X3",2020-04-17,2020-07-16,91.227.6.50,"{'lat': 39.919868, 'lon': 32.854271}",Turkey,2020-04-21
0.05,https://paypalsmmpanel.com/,,/,,"C=US, O=Let's Encrypt, CN=Let's Encrypt Authority X3",2020-04-19,2020-07-18,188.165.29.223,"{'lat': 50.69421, 'lon': 3.17456}",France,2020-04-21
0.05,https://startup.stw-bonn.de/,,/,,"C=US, O=Let's Encrypt, CN=Let's Encrypt Authority X3",2020-04-21,2020-07-20,88.99.102.242,"{'lat': 48.32333, 'lon': 11.60122}",Germany,2020-04-21
0.05,https://paypal.toolpixx.com/,,/,,"C=US, O=Let's Encrypt, CN=Let's Encrypt Authority X3",2020-04-17,2020-07-16,88.99.96.23,"{'lat': 48.32333, 'lon': 11.60122}",Germany,2020-04-21
0.05,https://www.lifipedia.com/,,/,,"C=US, O=Let's Encrypt, CN=Let's Encrypt Authority X3",2020-04-20,2020-07-19,88.214.207.96,"{'lat': 51.50853, 'lon': -0.12574}",United Kingdom of Great Britain and Northern Ireland,2020-04-21
0.05,https://www.eric-jackson.info/,,/,,"C=US, O=Let's Encrypt, CN=Let's Encrypt Authority X3",2020-04-19,2020-07-18,88.214.207.96,"{'lat': 51.50853, 'lon': -0.12574}",United Kingdom of Great Britain and Northern Ireland,2020-04-21
0.05,https://befashionvictim.com/,,/,,"C=US, O=Let's Encrypt, CN=Let's Encrypt Authority X3",2020-04-19,2020-07-18,84.22.108.13,"{'lat': 51.504169, 'lon': 3.88889}",Netherlands,2020-04-21
0.05,https://foodfamineprepper.com/,,/,,"C=US, O=Let's Encrypt, CN=Let's Encrypt Authority X3",2020-04-19,2020-07-18,88.214.207.96,"{'lat': 51.50853, 'lon': -0.12574}",United Kingdom of Great Britain and Northern Ireland,2020-04-21
0.05,https://paypal.gogosun.tw/,,/,,"C=US, O=Let's Encrypt, CN=Let's Encrypt Authority X3",2020-04-18,2020-07-17,103.17.8.67,"{'lat': 25.04776, 'lon': 121.531853}",Taiwan (Province of China),2020-04-21
0.05,https://paypal.toolpixx.com/,,/,,"C=US, O=Let's Encrypt, CN=Let's Encrypt Authority X3",2020-04-17,2020-07-16,88.99.96.23,"{'lat': 48.32333, 'lon': 11.60122}",Germany,2020-04-21
0,https://www.paypalm.com/,,/,,"C=US, O=DigiCert Inc, OU=www.digicert.com, CN=Encryption Everywhere DV TLS CA - G2",2019-05-09,2020-03-14,91.195.240.126,"{'lat': 50.933331, 'lon': 6.95}",Germany,2020-04-21
0,https://www.paypil.com/,,/,,"C=US, O=DigiCert Inc, OU=www.digicert.com, CN=Encryption Everywhere DV TLS CA - G2",2019-05-30,2020-05-29,91.195.240.126,"{'lat': 50.933331, 'lon': 6.95}",Germany,2020-04-21
0,https://vvvvvv.xn--pypl-q5bc.com/,,/,,"C=US, O=DigiCert Inc, OU=www.digicert.com, CN=Encryption Everywhere DV TLS CA - G1",2020-01-28,2021-01-28,91.195.240.126,"{'lat': 50.933331, 'lon': 6.95}",Germany,2020-04-21
0,https://xn--w-9naa.xn--pypl-5nac.com/,,/,,"C=US, O=DigiCert Inc, OU=www.digicert.com, CN=Encryption Everywhere DV TLS CA - G1",2020-01-28,2021-01-28,91.195.240.13,"{'lat': 50.933331, 'lon': 6.95}",Germany,2020-04-21
0,https://xn--ekgaa.xn--pypl-5nac.com/,,/,,"C=US, O=DigiCert Inc, OU=www.digicert.com, CN=Encryption Everywhere DV TLS CA - G1",2020-01-28,2021-01-28,91.195.240.13,"{'lat': 50.933331, 'lon': 6.95}",Germany,2020-04-21
0,https://xn--ww-t2s.xn--pypl-q5bc.com/,,/,,"C=US, O=DigiCert Inc, OU=www.digicert.com, CN=Encryption Everywhere DV TLS CA - G1",2020-01-28,2021-01-28,91.195.240.126,"{'lat': 50.933331, 'lon': 6.95}",Germany,2020-04-21
0,https://xn--ww-m4s.xn--pypl-q5bc.com/,,/,,"C=US, O=DigiCert Inc, OU=www.digicert.com, CN=Encryption Everywhere DV TLS CA - G1",2020-01-28,2021-01-28,91.195.240.126,"{'lat': 50.933331, 'lon': 6.95}",Germany,2020-04-21
0,https://xn--w-6sma.xn--pypl-5nac.com/,,/,,"C=US, O=DigiCert Inc, OU=www.digicert.com, CN=Encryption Everywhere DV TLS CA - G1",2020-01-28,2021-01-28,91.195.240.13,"{'lat': 50.933331, 'lon': 6.95}",Germany,2020-04-21
0,https://xn--ww-v2s.xn--pypl-5nac.com/,,/,,"C=US, O=DigiCert Inc, OU=www.digicert.com, CN=Encryption Everywhere DV TLS CA - G1",2020-01-28,2021-01-28,91.195.240.13,"{'lat': 50.933331, 'lon': 6.95}",Germany,2020-04-21
0,https://xn--w-7sma.xn--pypl-5nac.com/,,/,,"C=US, O=DigiCert Inc, OU=www.digicert.com, CN=Encryption Everywhere DV TLS CA - G1",2020-01-28,2021-01-28,91.195.240.13,"{'lat': 50.933331, 'lon': 6.95}",Germany,2020-04-21
0,https://www.xn--pypl-5nac.com/,,/,,"C=US, O=DigiCert Inc, OU=www.digicert.com, CN=Encryption Everywhere DV TLS CA - G1",2020-01-28,2021-01-28,91.195.240.13,"{'lat': 50.933331, 'lon': 6.95}",Germany,2020-04-21
0,https://xn--ujgaa.xn--pypl-q5bc.com/,,/,,"C=US, O=DigiCert Inc, OU=www.digicert.com, CN=Encryption Everywhere DV TLS CA - G1",2020-01-28,2021-01-28,91.195.240.126,"{'lat': 50.933331, 'lon': 6.95}",Germany,2020-04-21
0,https://wvvvv.xn--pypl-q5bc.com/,,/,,"C=US, O=DigiCert Inc, OU=www.digicert.com, CN=Encryption Everywhere DV TLS CA - G1",2020-01-28,2021-01-28,91.195.240.126,"{'lat': 50.933331, 'lon': 6.95}",Germany,2020-04-21
0,https://xn--w-6msa.xn--pypl-5nac.com/,,/,,"C=US, O=DigiCert Inc, OU=www.digicert.com, CN=Encryption Everywhere DV TLS CA - G1",2020-01-28,2021-01-28,91.195.240.13,"{'lat': 50.933331, 'lon': 6.95}",Germany,2020-04-21
0,https://xn--ww-cva.xn--pypl-5nac.com/,,/,,"C=US, O=DigiCert Inc, OU=www.digicert.com, CN=Encryption Everywhere DV TLS CA - G1",2020-01-28,2021-01-28,91.195.240.13,"{'lat': 50.933331, 'lon': 6.95}",Germany,2020-04-21
0,https://xn--ww-nt1a.xn--pypl-q5bc.com/,,/,,"C=US, O=DigiCert Inc, OU=www.digicert.com, CN=Encryption Everywhere DV TLS CA - G1",2020-01-28,2021-01-28,91.195.240.126,"{'lat': 50.933331, 'lon': 6.95}",Germany,2020-04-21
0,https://xn--yjgaa.xn--pypl-q5bc.com/,,/,,"C=US, O=DigiCert Inc, OU=www.digicert.com, CN=Encryption Everywhere DV TLS CA - G1",2020-02-04,2021-02-04,91.195.240.126,"{'lat': 50.933331, 'lon': 6.95}",Germany,2020-04-21
0,https://xn--wjgaa.xn--pypl-q5bc.com/,,/,,"C=US, O=DigiCert Inc, OU=www.digicert.com, CN=Encryption Everywhere DV TLS CA - G1",2020-01-28,2021-01-28,91.195.240.126,"{'lat': 50.933331, 'lon': 6.95}",Germany,2020-04-21
0,https://xn--w-7sma.xn--pypl-q5bc.com/,,/,,"C=US, O=DigiCert Inc, OU=www.digicert.com, CN=Encryption Everywhere DV TLS CA - G1",2020-01-28,2021-01-28,91.195.240.126,"{'lat': 50.933331, 'lon': 6.95}",Germany,2020-04-21
0,https://vvvvvv.xn--pypl-5nac.com/,,/,,"C=US, O=DigiCert Inc, OU=www.digicert.com, CN=Encryption Everywhere DV TLS CA - G1",2020-01-28,2021-01-28,91.195.240.13,"{'lat': 50.933331, 'lon': 6.95}",Germany,2020-04-21
0,https://xn--qgjaa.xn--pypl-q5bc.com/,,/,,"C=US, O=DigiCert Inc, OU=www.digicert.com, CN=Encryption Everywhere DV TLS CA - G1",2020-01-28,2021-01-28,91.195.240.126,"{'lat': 50.933331, 'lon': 6.95}",Germany,2020-04-21
0,https://xn--sjgaa.xn--pypl-q5bc.com/,,/,,"C=US, O=DigiCert Inc, OU=www.digicert.com, CN=Encryption Everywhere DV TLS CA - G1",2020-01-28,2021-01-28,91.195.240.126,"{'lat': 50.933331, 'lon': 6.95}",Germany,2020-04-21
0,https://xn--9gaaa.xn--pypl-5nac.com/,,/,,"C=US, O=DigiCert Inc, OU=www.digicert.com, CN=Encryption Everywhere DV TLS CA - G1",2020-01-28,2021-01-28,91.195.240.13,"{'lat': 50.933331, 'lon': 6.95}",Germany,2020-04-21
0,https://vvww.xn--pypl-q5bc.com/,,/,,"C=US, O=DigiCert Inc, OU=www.digicert.com, CN=Encryption Everywhere DV TLS CA - G1",2020-01-28,2021-01-28,91.195.240.126,"{'lat': 50.933331, 'lon': 6.95}",Germany,2020-04-21
0,https://xn--w-9naa.xn--pypl-q5bc.com/,,/,,"C=US, O=DigiCert Inc, OU=www.digicert.com, CN=Encryption Everywhere DV TLS CA - G1",2020-01-28,2021-01-28,91.195.240.126,"{'lat': 50.933331, 'lon': 6.95}",Germany,2020-04-21
0,https://xn--ww-p2s.xn--pypl-q5bc.com/,,/,,"C=US, O=DigiCert Inc, OU=www.digicert.com, CN=Encryption Everywhere DV TLS CA - G1",2020-01-28,2021-01-28,91.195.240.126,"{'lat': 50.933331, 'lon': 6.95}",Germany,2020-04-21
0,https://xn--w-7msa.xn--pypl-q5bc.com/,,/,,"C=US, O=DigiCert Inc, OU=www.digicert.com, CN=Encryption Everywhere DV TLS CA - G1",2020-01-28,2021-01-28,91.195.240.126,"{'lat': 50.933331, 'lon': 6.95}",Germany,2020-04-21
0,https://xn--w-gtma.xn--pypl-5nac.com/,,/,,"C=US, O=DigiCert Inc, OU=www.digicert.com, CN=Encryption Everywhere DV TLS CA - G1",2020-01-28,2021-01-28,91.195.240.13,"{'lat': 50.933331, 'lon': 6.95}",Germany,2020-04-21
0,https://xn--w-boaa.xn--pypl-q5bc.com/,,/,,"C=US, O=DigiCert Inc, OU=www.digicert.com, CN=Encryption Everywhere DV TLS CA - G1",2020-01-28,2021-01-28,91.195.240.126,"{'lat': 50.933331, 'lon': 6.95}",Germany,2020-04-21
0,https://xn--ww-pt1a.xn--pypl-5nac.com/,,/,,"C=US, O=DigiCert Inc, OU=www.digicert.com, CN=Encryption Everywhere DV TLS CA - G1",2020-01-28,2021-01-28,91.195.240.13,"{'lat': 50.933331, 'lon': 6.95}",Germany,2020-04-21
0,https://xn--ww-cva.xn--pypl-q5bc.com/,,/,,"C=US, O=DigiCert Inc, OU=www.digicert.com, CN=Encryption Everywhere DV TLS CA - G1",2020-01-28,2021-01-28,91.195.240.126,"{'lat': 50.933331, 'lon': 6.95}",Germany,2020-04-21
0,https://xn--ww-pt1a.xn--pypl-q5bc.com/,,/,,"C=US, O=DigiCert Inc, OU=www.digicert.com, CN=Encryption Everywhere DV TLS CA - G1",2020-01-28,2021-01-28,91.195.240.126,"{'lat': 50.933331, 'lon': 6.95}",Germany,2020-04-21
0,https://wwvv.xn--pypl-5nac.com/,,/,,"C=US, O=DigiCert Inc, OU=www.digicert.com, CN=Encryption Everywhere DV TLS CA - G1",2020-01-28,2021-01-28,91.195.240.13,"{'lat': 50.933331, 'lon': 6.95}",Germany,2020-04-21
0,https://xn--w-ktma.xn--pypl-5nac.com/,,/,,"C=US, O=DigiCert Inc, OU=www.digicert.com, CN=Encryption Everywhere DV TLS CA - G1",2020-01-28,2021-01-28,91.195.240.13,"{'lat': 50.933331, 'lon': 6.95}",Germany,2020-04-21
0,https://xn--w-7msa.xn--pypl-5nac.com/,,/,,"C=US, O=DigiCert Inc, OU=www.digicert.com, CN=Encryption Everywhere DV TLS CA - G1",2020-01-28,2021-01-28,91.195.240.13,"{'lat': 50.933331, 'lon': 6.95}",Germany,2020-04-21
0,https://xn--yjgaa.xn--pypl-5nac.com/,,/,,"C=US, O=DigiCert Inc, OU=www.digicert.com, CN=Encryption Everywhere DV TLS CA - G1",2020-01-28,2021-01-28,91.195.240.13,"{'lat': 50.933331, 'lon': 6.95}",Germany,2020-04-21
0,https://xn--ww-z2s.xn--pypl-5nac.com/,,/,,"C=US, O=DigiCert Inc, OU=www.digicert.com, CN=Encryption Everywhere DV TLS CA - G1",2020-01-28,2021-01-28,91.195.240.13,"{'lat': 50.933331, 'lon': 6.95}",Germany,2020-04-21
0,https://xn--ww-c3s.xn--pypl-q5bc.com/,,/,,"C=US, O=DigiCert Inc, OU=www.digicert.com, CN=Encryption Everywhere DV TLS CA - G1",2020-01-28,2021-01-28,91.195.240.126,"{'lat': 50.933331, 'lon': 6.95}",Germany,2020-04-21
0,https://xn--ww-02s.xn--pypl-q5bc.com/,,/,,"C=US, O=DigiCert Inc, OU=www.digicert.com, CN=Encryption Everywhere DV TLS CA - G1",2020-01-28,2021-01-28,91.195.240.126,"{'lat': 50.933331, 'lon': 6.95}",Germany,2020-04-21
0,https://xn--w-juma.xn--pypl-5nac.com/,,/,,"C=US, O=DigiCert Inc, OU=www.digicert.com, CN=Encryption Everywhere DV TLS CA - G1",2020-01-28,2021-01-28,91.195.240.13,"{'lat': 50.933331, 'lon': 6.95}",Germany,2020-04-21
0,https://xn--ww-p2s.xn--pypl-5nac.com/,,/,,"C=US, O=DigiCert Inc, OU=www.digicert.com, CN=Encryption Everywhere DV TLS CA - G1",2020-01-28,2021-01-28,91.195.240.13,"{'lat': 50.933331, 'lon': 6.95}",Germany,2020-04-21
0,https://xn--ekgaa.xn--pypl-q5bc.com/,,/,,"C=US, O=DigiCert Inc, OU=www.digicert.com, CN=Encryption Everywhere DV TLS CA - G1",2020-01-28,2021-01-28,91.195.240.126,"{'lat': 50.933331, 'lon': 6.95}",Germany,2020-04-21
0,https://xn--w-ktma.xn--pypl-q5bc.com/,,/,,"C=US, O=DigiCert Inc, OU=www.digicert.com, CN=Encryption Everywhere DV TLS CA - G1",2020-02-13,2021-02-13,91.195.240.126,"{'lat': 50.933331, 'lon': 6.95}",Germany,2020-04-21
0,https://xn--ujgaa.xn--pypl-5nac.com/,,/,,"C=US, O=DigiCert Inc, OU=www.digicert.com, CN=Encryption Everywhere DV TLS CA - G1",2020-01-28,2021-01-28,91.195.240.13,"{'lat': 50.933331, 'lon': 6.95}",Germany,2020-04-21
0,https://xn--ww-9ua.xn--pypl-5nac.com/,,/,,"C=US, O=DigiCert Inc, OU=www.digicert.com, CN=Encryption Everywhere DV TLS CA - G1",2020-01-28,2021-01-28,91.195.240.13,"{'lat': 50.933331, 'lon': 6.95}",Germany,2020-04-21
0,https://xn--ww-12s.xn--pypl-5nac.com/,,/,,"C=US, O=DigiCert Inc, OU=www.digicert.com, CN=Encryption Everywhere DV TLS CA - G1",2020-01-28,2021-01-28,91.195.240.13,"{'lat': 50.933331, 'lon': 6.95}",Germany,2020-04-21
0,https://xn--ww-n2s.xn--pypl-5nac.com/,,/,,"C=US, O=DigiCert Inc, OU=www.digicert.com, CN=Encryption Everywhere DV TLS CA - G1",2020-01-28,2021-01-28,91.195.240.13,"{'lat': 50.933331, 'lon': 6.95}",Germany,2020-04-21
0,https://www.paypa1l.com/,,/,,"C=US, O=Let's Encrypt, CN=Let's Encrypt Authority X3",2020-04-02,2020-07-01,198.185.159.145,"{'lat': 40.734699, 'lon': -74.005898}",United States of America,2020-04-21
0,https://www.paypoal.com/,,/,,"C=US, O=DigiCert Inc, OU=www.digicert.com, CN=Encryption Everywhere DV TLS CA - G2",2019-05-09,2020-03-14,91.195.240.126,"{'lat': 50.933331, 'lon': 6.95}",Germany,2020-04-21
0,https://www.paypazl.com/,,/,,"C=US, O=Let's Encrypt, CN=Let's Encrypt Authority X3",2019-01-18,2019-04-18,103.224.182.245,"{'lat': -37.982201, 'lon': 145.03894}",Australia,2020-04-21
0,https://www.paypsl.com/,,/,,"C=US, O=DigiCert Inc, OU=www.digicert.com, CN=Encryption Everywhere DV TLS CA - G2",2019-05-09,2020-03-14,91.195.240.126,"{'lat': 50.933331, 'lon': 6.95}",Germany,2020-04-21
0,https://www.pzypal.com/,,/,,"C=US, O=DigiCert Inc, OU=www.digicert.com, CN=Encryption Everywhere DV TLS CA - G2",2019-06-04,2020-06-03,91.195.240.126,"{'lat': 50.933331, 'lon': 6.95}",Germany,2020-04-21
0,https://www.pyapal.com/,,/,,"C=US, O=DigiCert Inc, OU=www.digicert.com, CN=Encryption Everywhere DV TLS CA - G2",2019-05-10,2020-03-15,91.195.240.126,"{'lat': 50.933331, 'lon': 6.95}",Germany,2020-04-21
0,https://paypal-service-support.evangeliototal.cl/,,/,,"C=US, O=Let's Encrypt, CN=Let's Encrypt Authority X3",2020-04-19,2020-07-18,131.72.236.53,"{'lat': -33.426281, 'lon': -70.566559}",Chile,2020-04-21
0,https://paypal.jahcp.org/,,/,,"C=US, O=Let's Encrypt, CN=Let's Encrypt Authority X3",2020-04-19,2020-07-18,180.222.189.47,"{'lat': 35.689507, 'lon': 139.691696}",Japan,2020-04-21
0,https://laravel-paypal-demo.srmk.info/,,/,,"C=US, O=Let's Encrypt, CN=Let's Encrypt Authority X3",2020-04-20,2020-07-19,178.62.92.215,"{'lat': 51.50853, 'lon': -0.12574}",United Kingdom of Great Britain and Northern Ireland,2020-04-21
0,https://paypal.shop-ln.net/,,/,,"C=US, O=Let's Encrypt, CN=Let's Encrypt Authority X3",2020-04-20,2020-07-19,93.104.210.145,"{'lat': 48.137428, 'lon': 11.57549}",Germany,2020-04-21
0,https://discord.bogosity.tv/,,/,,"C=US, O=Let's Encrypt, CN=Let's Encrypt Authority X3",2020-04-19,2020-07-18,70.32.23.4,"{'lat': 42.228848, 'lon': -83.735924}",United States of America,2020-04-21
0,https://www.paypal.doe2.ro/,,/,,"C=US, O=Let's Encrypt, CN=Let's Encrypt Authority X3",2020-04-19,2020-07-18,188.212.102.126,"{'lat': 46.566669, 'lon': 26.9}",Romania,2020-04-21
0,https://paypal-cgi-secures.stpsecurity.co.za/,,/,,"C=US, O=Let's Encrypt, CN=Let's Encrypt Authority X3",2020-04-16,2020-07-15,154.0.174.45,"{'lat': -26.202271, 'lon': 28.043631}",South Africa,2020-04-21
0,https://api-3t.paypal.com.hosting1.tn-rechenzentrum1.de/,,/,,"C=US, O=Let's Encrypt, CN=Let's Encrypt Authority X3",2020-04-21,2020-07-20,136.243.189.172,"{'lat': 52.524368, 'lon': 13.41053}",Germany,2020-04-21
0,https://paypalbuy.com/,,/,,"C=US, O=Let's Encrypt, CN=Let's Encrypt Authority X3",2020-04-17,2020-07-16,174.139.160.233,"{'lat': 33.810329, 'lon': -117.847282}",United States of America,2020-04-21
0,https://paypaldcdf.com/,,/,,"C=US, O=Let's Encrypt, CN=Let's Encrypt Authority X3",2020-04-17,2020-07-16,174.139.160.233,"{'lat': 33.810329, 'lon': -117.847282}",United States of America,2020-04-21
0,https://www.smartstore.phpscriptsready.com/,,/,,"C=US, O=Let's Encrypt, CN=Let's Encrypt Authority X3",2020-04-18,2020-07-17,51.89.20.169,"{'lat': 50.383598, 'lon': 8.0503}",Germany,2020-04-21
0,https://www.glasgowroofer.com/,,/,,"C=US, O=Let's Encrypt, CN=Let's Encrypt Authority X3",2020-04-19,2020-07-18,88.214.207.96,"{'lat': 51.50853, 'lon': -0.12574}",United Kingdom of Great Britain and Northern Ireland,2020-04-21
0,https://nuitetspa.com/,,/,,"C=US, O=Let's Encrypt, CN=Let's Encrypt Authority X3",2020-04-19,2020-07-18,46.105.36.211,"{'lat': 50.69421, 'lon': 3.17456}",France,2020-04-21
0,https://paypal.gg.mk/,,/,,"C=US, O=Let's Encrypt, CN=Let's Encrypt Authority X3",2020-04-20,2020-07-19,209.205.218.106,"{'lat': 40.554516, 'lon': -74.460167}",United States of America,2020-04-21
0,https://paypal.averystore.ph/,,/,,"C=US, O=Let's Encrypt, CN=Let's Encrypt Authority X3",2020-04-16,2020-07-15,174.136.29.210,"{'lat': 38.61594, 'lon': -90.445137}",United States of America,2020-04-21
0,https://xarta.co.uk/,,/,,"C=US, O=Let's Encrypt, CN=Let's Encrypt Authority X3",2020-04-17,2020-07-16,81.137.121.98,"{'lat': 51.587742, 'lon': -2.99835}",United Kingdom of Great Britain and Northern Ireland,2020-04-21
0,https://paypaldfdc.com/,,/,,"C=US, O=Let's Encrypt, CN=Let's Encrypt Authority X3",2020-04-17,2020-07-16,174.139.160.233,"{'lat': 33.810329, 'lon': -117.847282}",United States of America,2020-04-21
0,https://mold0.com/,,/,,"C=US, O=Let's Encrypt, CN=Let's Encrypt Authority X3",2020-04-17,2020-07-16,103.224.182.253,"{'lat': -37.982201, 'lon': 145.03894}",Australia,2020-04-21
0,https://paypal.icu/,,/,,"C=US, O=Let's Encrypt, CN=Let's Encrypt Authority X3",2020-04-17,2020-07-16,174.139.160.233,"{'lat': 33.810329, 'lon': -117.847282}",United States of America,2020-04-21
0,https://paypalalogin.altervista.org/,,/,,"C=US, O=Let's Encrypt, CN=Let's Encrypt Authority X3",2020-04-17,2020-07-16,136.243.144.171,"{'lat': 50.477879, 'lon': 12.37129}",Germany,2020-04-21
0,https://support-paypal-secure.service-client.yj.fr/,,/,,"C=US, O=Let's Encrypt, CN=Let's Encrypt Authority X3",2020-04-16,2020-07-15,146.88.236.51,"{'lat': 43.950161, 'lon': 0.20358}",France,2020-04-21
0,https://cam1.wilsonparrotfoundation.org/,,/,,"C=US, O=Let's Encrypt, CN=Let's Encrypt Authority X3",2020-04-17,2020-07-16,216.127.135.218,"{'lat': 39.08292, 'lon': -77.061241}",United States of America,2020-04-21
0,https://paypal.eliearo.com/,,/,,"C=US, O=Let's Encrypt, CN=Let's Encrypt Authority X3",2020-04-16,2020-07-15,91.134.131.169,"{'lat': 50.69421, 'lon': 3.17456}",France,2020-04-21
0,https://paypal.caribbeanbites.co.uk/,,/,,"C=US, O=Let's Encrypt, CN=Let's Encrypt Authority X3",2020-04-16,2020-07-15,77.68.31.77,"{'lat': 51.865681, 'lon': -2.2431}",United Kingdom of Great Britain and Northern Ireland,2020-04-21
0,https://paypalforsale.com/,,/,,"C=US, O=Let's Encrypt, CN=Let's Encrypt Authority X3",2020-04-17,2020-07-16,174.139.160.233,"{'lat': 33.810329, 'lon': -117.847282}",United States of America,2020-04-21
0,https://mib-project.eu/,,/,,"C=US, O=Let's Encrypt, CN=Let's Encrypt Authority X3",2020-04-20,2020-07-19,46.28.105.34,"{'lat': 49.05225, 'lon': 14.43427}",Czechia,2020-04-21
0,https://m.paypal.instantreward.com/,,/,,"C=US, O=Let's Encrypt, CN=Let's Encrypt Authority X3",2020-04-18,2020-07-17,64.91.252.55,"{'lat': 42.73328, 'lon': -84.637764}",United States of America,2020-04-21
0,https://betsaport.tk/,,/,,"C=US, O=Let's Encrypt, CN=Let's Encrypt Authority X3",2020-04-16,2020-07-15,178.63.127.193,"{'lat': 49.447781, 'lon': 11.06833}",Germany,2020-04-21
0,https://www.wp-woo-paypal.smartapps.pl/,,/,,"C=US, O=Let's Encrypt, CN=Let's Encrypt Authority X3",2020-04-19,2020-07-18,139.59.214.33,"{'lat': 1.28967, 'lon': 103.850067}",Singapore,2020-04-21
0,https://yetacms.learningworks.us/,,/,,"C=US, O=Let's Encrypt, CN=Let's Encrypt Authority X3",2020-04-19,2020-07-18,204.44.192.66,"{'lat': 43.446182, 'lon': -79.668846}",Canada,2020-04-21
0,https://paypal-info.bahadurhosting.com/,,/,,"C=US, O=Let's Encrypt, CN=Let's Encrypt Authority X3",2020-04-16,2020-07-15,173.212.219.234,"{'lat': 48.137428, 'lon': 11.57549}",Germany,2020-04-21
0,https://www.paypal.inc.mega-hz.de/,,/,,"C=US, O=Let's Encrypt, CN=Let's Encrypt Authority X3",2020-04-16,2020-07-15,208.77.216.73,"{'lat': 32.782555, 'lon': -96.777039}",United States of America,2020-04-21
0,https://paypalmedysonhub.altervista.org/,,/,,"C=US, O=Let's Encrypt, CN=Let's Encrypt Authority X3",2020-04-18,2020-07-17,136.243.144.171,"{'lat': 50.477879, 'lon': 12.37129}",Germany,2020-04-21
0,https://www.smg.selarasmitraintegra.com/,,/,,"C=US, O=Let's Encrypt, CN=Let's Encrypt Authority X3",2020-04-17,2020-07-16,103.247.9.140,"{'lat': -7.78278, 'lon': 110.360832}",Indonesia,2020-04-21
0,https://paypalemail.3utilities.com/,,/,,"C=US, O=Let's Encrypt, CN=Let's Encrypt Authority X3",2020-04-17,2020-07-16,162.214.51.140,"{'lat': 40.213909, 'lon': -111.634071}",United States of America,2020-04-21
0,https://www.paypalverified.cf/,,/,,"C=US, O=Let's Encrypt, CN=Let's Encrypt Authority X3",2020-04-19,2020-07-18,104.24.112.38,"{'lat': 32.783058, 'lon': -96.806671}",United States of America,2020-04-21
0,https://paypal-secureupdt.serveirc.com/,,/,,"C=US, O=Let's Encrypt, CN=Let's Encrypt Authority X3",2020-04-20,2020-07-19,192.119.73.235,"{'lat': 47.620621, 'lon': -122.310959}",United States of America,2020-04-21
0,https://hacksaw.com/,,/,,"C=US, O=Let's Encrypt, CN=Let's Encrypt Authority X3",2020-04-18,2020-07-17,207.58.137.101,"{'lat': 41.850029, 'lon': -87.650047}",United States of America,2020-04-21
0,https://paypal.maxprog.com/,,/,,"C=US, O=Let's Encrypt, CN=Let's Encrypt Authority X3",2020-04-16,2020-07-15,66.39.84.35,"{'lat': 40.424881, 'lon': -79.980957}",United States of America,2020-04-21
0,https://webapps.paypalsupport.confirmationbank.njulaiha.business/,,/,,"C=US, O=Let's Encrypt, CN=Let's Encrypt Authority X3",2020-04-19,2020-07-18,157.245.181.193,"{'lat': 40.719936, 'lon': -74.005013}",United States of America,2020-04-21
0,https://paypal.betalands.com/,,/,,"C=US, O=Let's Encrypt, CN=Let's Encrypt Authority X3",2020-04-19,2020-07-18,142.44.246.125,"{'lat': 45.508839, 'lon': -73.587807}",Canada,2020-04-21
0,https://paypal.suspicious.activity.bickhramlitigation.com/,,/,,"C=US, O=Let's Encrypt, CN=Let's Encrypt Authority X3",2020-04-20,2020-07-19,162.144.102.154,"{'lat': 40.213909, 'lon': -111.634071}",United States of America,2020-04-21
0,https://www.paypal.gickamoke.edu.pk/,,/,,"C=US, O=Let's Encrypt, CN=Let's Encrypt Authority X3",2020-04-19,2020-07-18,173.212.217.140,"{'lat': 48.137428, 'lon': 11.57549}",Germany,2020-04-21
0,https://secure-unusual-sign-account-paypal.xxifsettings.com/,,/,,"C=US, O=Let's Encrypt, CN=Let's Encrypt Authority X3",2020-04-20,2020-07-19,162.241.67.36,"{'lat': 40.213909, 'lon': -111.634071}",United States of America,2020-04-21
0,https://security-apple.com-support.fasgate.com/,,/,,"C=US, O=Let's Encrypt, CN=Let's Encrypt Authority X3",2020-04-18,2020-07-17,162.214.67.4,"{'lat': 40.213909, 'lon': -111.634071}",United States of America,2020-04-21
0,https://www.paypal.qa-webbuildercs.com/,,/,,"C=US, O=Let's Encrypt, CN=Let's Encrypt Authority X3",2020-04-18,2020-07-17,54.200.248.64,"{'lat': 45.523449, 'lon': -122.676208}",United States of America,2020-04-21
0,https://paypal.k3ys3ns3.com/,,/,,"C=US, O=Let's Encrypt, CN=Let's Encrypt Authority X3",2020-04-18,2020-07-17,37.48.73.231,"{'lat': 52.374031, 'lon': 4.88969}",Netherlands,2020-04-21
0,https://paypal-checkeurx.ddns.net/,,/,,"C=US, O=Let's Encrypt, CN=Let's Encrypt Authority X3",2020-04-20,2020-07-19,62.4.29.86,"{'lat': 43.528301, 'lon': 5.44973}",France,2020-04-21
0,https://prodesignit.net/,,/,,"C=US, O=Let's Encrypt, CN=Let's Encrypt Authority X3",2020-04-20,2020-07-19,193.22.157.94,"{'lat': 45.44207, 'lon': 9.09445}",Italy,2020-04-21
0,https://www.paypal.com.internusamandiri.com/,,/,,"C=US, O=Let's Encrypt, CN=Let's Encrypt Authority X3",2020-04-18,2020-07-17,180.235.151.11,"{'lat': -6.21462, 'lon': 106.845131}",Indonesia,2020-04-21
0,https://paypal-securelogin.ddns.net/,,/,,"C=US, O=Let's Encrypt, CN=Let's Encrypt Authority X3",2020-04-20,2020-07-19,192.119.73.235,"{'lat': 47.620621, 'lon': -122.310959}",United States of America,2020-04-21
0,https://paypalplus.pluginpsyde.com/,,/,,"C=US, O=Let's Encrypt, CN=Let's Encrypt Authority X3",2020-04-16,2020-07-15,176.52.246.216,"{'lat': 52.3825, 'lon': 8.62127}",Germany,2020-04-21
0,https://api-paypal.ofipol.com/,,/,,"C=US, O=Let's Encrypt, CN=Let's Encrypt Authority X3",2020-04-17,2020-07-16,82.223.97.165,"{'lat': 36.94508, 'lon': -2.46302}",Spain,2020-04-21
0,https://paypal-support-verification.fr.ssitrucktrailer.com/,,/,,"C=US, O=Let's Encrypt, CN=Let's Encrypt Authority X3",2020-04-19,2020-07-18,66.35.109.2,"{'lat': 45.46484, 'lon': -98.490532}",United States of America,2020-04-21
0,https://account-update-paypal-info.keyav.ir/,,/,,"C=US, O=Let's Encrypt, CN=Let's Encrypt Authority X3",2020-04-20,2020-07-19,88.99.59.188,"{'lat': 50.477879, 'lon': 12.37129}",Germany,2020-04-21
0,https://paypal.anunciweb.pt/,,/,,"C=US, O=Let's Encrypt, CN=Let's Encrypt Authority X3",2020-04-20,2020-07-19,46.4.30.139,"{'lat': 49.447781, 'lon': 11.06833}",Germany,2020-04-21
0,https://paypal.webrelaunch.info/,,/,,"C=US, O=Let's Encrypt, CN=Let's Encrypt Authority X3",2020-04-20,2020-07-19,81.169.149.136,"{'lat': 52.524368, 'lon': 13.41053}",Germany,2020-04-21
0,https://sikone-engineers.co.za/,,/,,"C=US, O=Let's Encrypt, CN=Let's Encrypt Authority X3",2020-04-18,2020-07-17,169.1.20.187,"{'lat': -26.202271, 'lon': 28.043631}",South Africa,2020-04-21
0,https://paypal.com.home.paypalonline.online.ihsanaktas.av.tr/,,/,,"C=US, O=Let's Encrypt, CN=Let's Encrypt Authority X3",2020-04-19,2020-07-18,5.180.184.221,"{'lat': 41.01384, 'lon': 28.949659}",Turkey,2020-04-21
0,https://paypal1.alpha.staging.cargo.site/,,/,,"C=US, O=Let's Encrypt, CN=Let's Encrypt Authority X3",2020-04-17,2020-07-16,34.200.110.43,"{'lat': 39.04372, 'lon': -77.487488}",United States of America,2020-04-21
0,https://paypal.rudison.eu/,,/,,"C=US, O=Let's Encrypt, CN=Let's Encrypt Authority X3",2020-04-20,2020-07-19,213.136.93.162,"{'lat': 48.137428, 'lon': 11.57549}",Germany,2020-04-21
0,https://paypal.knutkohl.consulting/,,/,,"C=US, O=Let's Encrypt, CN=Let's Encrypt Authority X3",2020-04-18,2020-07-17,193.25.100.114,"{'lat': 51.452969, 'lon': 7.07907}",Germany,2020-04-21
0,https://paypal.resolve-centre.com/,,/,,"C=US, O=Let's Encrypt, CN=Let's Encrypt Authority X3",2020-04-20,2020-07-19,162.241.114.190,"{'lat': 40.213909, 'lon': -111.634071}",United States of America,2020-04-21
0,https://secure.paypal.com-support-assistace.semain.yo.fr/,,/,,"C=US, O=Let's Encrypt, CN=Let's Encrypt Authority X3",2020-04-18,2020-07-17,146.88.237.14,"{'lat': 43.950161, 'lon': 0.20358}",France,2020-04-21
0,https://pourkan.com/,,/,,"C=US, O=Let's Encrypt, CN=Let's Encrypt Authority X3",2020-04-17,2020-07-16,87.98.135.10,"{'lat': 50.69421, 'lon': 3.17456}",France,2020-04-21
0,https://sign-accounmt-paypal.accntsupdte-mangelimitsid.com/,,/,,"C=US, O=Let's Encrypt, CN=Let's Encrypt Authority X3",2020-04-20,2020-07-19,162.241.67.36,"{'lat': 40.213909, 'lon': -111.634071}",United States of America,2020-04-21
0,https://www.paypalzebyyy.standardbredvet.ca/,,/,,"C=US, O=Let's Encrypt, CN=Let's Encrypt Authority X3",2020-04-20,2020-07-19,209.59.156.150,"{'lat': 42.73328, 'lon': -84.637764}",United States of America,2020-04-21
0,https://paypals.webpress.a2hosted.com/,,/,,"C=US, O=Let's Encrypt, CN=Let's Encrypt Authority X3",2020-04-18,2020-07-17,68.66.224.54,"{'lat': 42.228848, 'lon': -83.735924}",United States of America,2020-04-21
0,https://www.m.paypal.instantrewards.net/,,/,,"C=US, O=Let's Encrypt, CN=Let's Encrypt Authority X3",2020-04-18,2020-07-17,64.91.240.15,"{'lat': 42.73328, 'lon': -84.637764}",United States of America,2020-04-21
0,https://www.paypal.com-cgi-bin-webscr-cmd.ukbiketrailer.co.uk/,,/,,"C=US, O=Let's Encrypt, CN=Let's Encrypt Authority X3",2020-04-19,2020-07-18,185.181.125.27,"{'lat': 55.86515, 'lon': -4.25763}",United Kingdom of Great Britain and Northern Ireland,2020-04-21
0,https://paypalvpn.com/,,/,,"C=US, O=Let's Encrypt, CN=Let's Encrypt Authority X3",2020-04-16,2020-07-15,185.163.46.131,"{'lat': 47.005562, 'lon': 28.8575}",Moldova (Republic of),2020-04-21
0,https://secure-unusual-sign-account-paypal.xxifsettings.com/,,/,,"C=US, O=Let's Encrypt, CN=Let's Encrypt Authority X3",2020-04-20,2020-07-19,162.241.67.36,"{'lat': 40.213909, 'lon': -111.634071}",United States of America,2020-04-21
0,https://kisyuuturi-paypalmanyudownload.fishing-blackseabream.net/,,/,,"C=US, O=Let's Encrypt, CN=Let's Encrypt Authority X3",2020-04-16,2020-07-15,202.181.99.43,"{'lat': 35.689507, 'lon': 139.691696}",Japan,2020-04-21
0,https://paypal.resolve-centre.com/,,/,,"C=US, O=Let's Encrypt, CN=Let's Encrypt Authority X3",2020-04-20,2020-07-19,162.241.114.190,"{'lat': 40.213909, 'lon': -111.634071}",United States of America,2020-04-21
0,https://paypal.labohe.me/,,/,,"C=US, O=Let's Encrypt, CN=Let's Encrypt Authority X3",2020-04-18,2020-07-17,208.167.245.88,"{'lat': 40.539722, 'lon': -74.466393}",United States of America,2020-04-21
0,https://hide-paypal.edip.se/,,/,,"C=US, O=Let's Encrypt, CN=Let's Encrypt Authority X3",2020-04-21,2020-07-20,167.172.190.100,"{'lat': 40.714272, 'lon': -74.005966}",United States of America,2020-04-21
0,https://www.paypalverificationusa.com/,,/,,"C=US, ST=TX, L=Houston, O=cPanel, Inc., CN=cPanel, Inc. Certification Authority",2020-04-16,2020-07-15,107.173.255.164,"{'lat': 42.8825, 'lon': -78.878799}",United States of America,2020-04-21
0,https://paypal.com.comicij.org/,,/,,"C=US, ST=TX, L=Houston, O=cPanel, Inc., CN=cPanel, Inc. Certification Authority",2020-04-16,2020-07-15,143.95.64.8,"{'lat': 42.50848, 'lon': -71.201134}",United States of America,2020-04-21
0,https://paypal.update-centre.com/,,/,,"C=US, O=Let's Encrypt, CN=Let's Encrypt Authority X3",2020-04-17,2020-07-16,162.241.65.248,"{'lat': 40.213909, 'lon': -111.634071}",United States of America,2020-04-21
